<?xml version="1.0" encoding="utf-8"?>
<!-- Generator: Adobe Illustrator 23.0.1, SVG Export Plug-In . SVG Version: 6.00 Build 0)  -->
<svg version="1.1" id="Layer_1" xmlns="http://www.w3.org/2000/svg" xmlns:xlink="http://www.w3.org/1999/xlink" x="0px" y="0px"
	 width="250px" height="79px" viewBox="0 0 250 79" style="enable-background:new 0 0 250 79;" xml:space="preserve">
<style type="text/css">
	.st0{fill:#0873F6;}
	.st1{fill:#808080;}
</style>
<g>
	<g>
		<path class="st0" d="M95.72,51.18c0,1.13-0.29,1.89-0.88,2.28c-0.58,0.39-1.28,0.58-2.1,0.58s-1.52-0.19-2.11-0.58
			c-0.58-0.39-0.88-1.13-0.88-2.22c-2.49,1.87-5.37,2.81-8.62,2.81c-4.03,0-7.47-1.42-10.32-4.27c-2.85-2.85-4.27-6.28-4.27-10.32
			c0-4.03,1.42-7.47,4.27-10.32c2.84-2.84,6.28-4.27,10.32-4.27s7.47,1.42,10.32,4.27c2.81,2.81,4.23,6.2,4.27,10.17V51.18z
			 M87.28,33.32c-1.69-1.69-3.74-2.54-6.14-2.54c-2.4,0-4.44,0.84-6.12,2.53c-1.69,1.69-2.53,3.73-2.53,6.12
			c0,2.39,0.84,4.44,2.53,6.14c1.68,1.7,3.72,2.54,6.12,2.54c2.4,0,4.44-0.85,6.14-2.54c1.44-1.44,2.27-3.14,2.48-5.08v-1.11
			c0-0.18,0.01-0.35,0.03-0.53C89.67,36.7,88.84,34.86,87.28,33.32z"/>
		<path class="st0" d="M130.85,39.6c-0.04,3.97-1.46,7.36-4.27,10.17c-2.84,2.84-6.28,4.27-10.32,4.27s-7.47-1.42-10.32-4.27
			c-2.85-2.85-4.27-6.28-4.27-10.32c0-4.03,1.42-7.47,4.27-10.32c2.84-2.84,6.28-4.27,10.32-4.27c3.25,0,6.13,0.94,8.62,2.81v-8.59
			c0-0.82,0.29-1.52,0.88-2.11c0.59-0.58,1.29-0.88,2.11-0.88s1.52,0.29,2.1,0.88c0.59,0.58,0.88,1.29,0.88,2.11V39.6z
			 M124.92,40.07c-0.02-0.18-0.03-0.35-0.03-0.53v-1.11c-0.21-1.95-1.04-3.64-2.48-5.08c-1.69-1.7-3.74-2.54-6.14-2.54
			c-2.4,0-4.44,0.85-6.12,2.54c-1.69,1.69-2.53,3.74-2.53,6.14c0,2.4,0.84,4.44,2.53,6.12c1.68,1.68,3.72,2.53,6.12,2.53
			c2.4,0,4.44-0.85,6.14-2.54C123.97,44.05,124.8,42.21,124.92,40.07z"/>
		<path class="st0" d="M154.18,52.14c-0.14,0.39-0.36,0.73-0.67,1.02c-0.57,0.58-1.26,0.88-2.08,0.88c-0.8,0-1.48-0.29-2.05-0.88
			c-0.31-0.29-0.54-0.62-0.67-0.99L137.34,29.4c-0.35-0.49-0.53-1.04-0.53-1.67c0-0.8,0.29-1.48,0.86-2.06
			c0.58-0.57,1.26-0.86,2.06-0.86c0.82,0,1.51,0.28,2.07,0.85c0.19,0.19,0.35,0.4,0.47,0.61h0.03l9.12,18.27l9.12-18.27l0.03,0.03
			c0.14-0.24,0.3-0.45,0.5-0.64c0.56-0.56,1.25-0.85,2.05-0.85c0.82,0,1.51,0.29,2.08,0.86c0.56,0.58,0.85,1.26,0.85,2.06
			c0,0.64-0.18,1.21-0.55,1.7L154.18,52.14z"/>
		<path class="st0" d="M174.93,21.95c-0.82,0-1.52-0.29-2.1-0.88c-0.59-0.58-0.88-1.29-0.88-2.11c0-0.82,0.29-1.52,0.88-2.1
			c0.58-0.58,1.28-0.88,2.1-0.88c0.82,0,1.52,0.29,2.11,0.88c0.58,0.58,0.88,1.29,0.88,2.1c0,0.82-0.29,1.52-0.88,2.11
			C176.45,21.65,175.75,21.95,174.93,21.95z M174.93,54.04c-0.82,0-1.52-0.29-2.1-0.88c-0.59-0.58-0.88-1.29-0.88-2.11V27.68
			c0-0.82,0.29-1.52,0.88-2.11c0.58-0.58,1.28-0.88,2.1-0.88c0.82,0,1.52,0.29,2.11,0.88c0.58,0.58,0.88,1.29,0.88,2.11v23.38
			c0,0.82-0.29,1.52-0.88,2.11C176.45,53.75,175.75,54.04,174.93,54.04z"/>
		<path class="st0" d="M212.84,51.18c0,1.13-0.29,1.89-0.88,2.28c-0.58,0.39-1.28,0.58-2.1,0.58c-0.82,0-1.52-0.19-2.11-0.58
			c-0.58-0.39-0.88-1.13-0.88-2.22c-2.49,1.87-5.37,2.81-8.62,2.81c-4.03,0-7.47-1.42-10.32-4.27c-2.85-2.85-4.27-6.28-4.27-10.32
			c0-4.03,1.42-7.47,4.27-10.32c2.84-2.84,6.28-4.27,10.32-4.27s7.47,1.42,10.32,4.27c2.81,2.81,4.23,6.2,4.27,10.17V51.18z
			 M204.39,33.32c-1.69-1.69-3.74-2.54-6.14-2.54c-2.4,0-4.44,0.84-6.12,2.53c-1.69,1.69-2.53,3.73-2.53,6.12
			c0,2.39,0.84,4.44,2.53,6.14c1.68,1.7,3.72,2.54,6.12,2.54c2.4,0,4.44-0.85,6.14-2.54c1.44-1.44,2.27-3.14,2.48-5.08v-1.11
			c0-0.18,0.01-0.35,0.03-0.53C206.79,36.7,205.95,34.86,204.39,33.32z"/>
		<path class="st0" d="M247.97,39.6c-0.04,3.97-1.46,7.36-4.27,10.17c-2.84,2.84-6.28,4.27-10.32,4.27s-7.47-1.42-10.32-4.27
			c-2.85-2.85-4.27-6.28-4.27-10.32c0-4.03,1.42-7.47,4.27-10.32c2.84-2.84,6.28-4.27,10.32-4.27c3.25,0,6.13,0.94,8.62,2.81v-8.59
			c0-0.82,0.29-1.52,0.88-2.11c0.59-0.58,1.29-0.88,2.11-0.88c0.82,0,1.52,0.29,2.1,0.88c0.59,0.58,0.88,1.29,0.88,2.11V39.6z
			 M242.04,40.07c-0.02-0.18-0.03-0.35-0.03-0.53v-1.11c-0.21-1.95-1.04-3.64-2.48-5.08c-1.69-1.7-3.74-2.54-6.14-2.54
			c-2.4,0-4.44,0.85-6.12,2.54c-1.69,1.69-2.53,3.74-2.53,6.14c0,2.4,0.84,4.44,2.53,6.12c1.68,1.68,3.72,2.53,6.12,2.53
			c2.4,0,4.44-0.85,6.14-2.54C241.08,44.05,241.92,42.21,242.04,40.07z"/>
	</g>
	<g>
		<path class="st0" d="M27.76,0.99c-3.49,0-6.32,2.83-6.32,6.32c0,3.49,2.83,6.32,6.32,6.32c3.49,0,6.32-2.83,6.32-6.32
			C34.09,3.82,31.26,0.99,27.76,0.99z"/>
		<path class="st0" d="M27.76,16.96c-2.91,0-5.27,2.36-5.27,5.27c0,2.91,2.36,5.27,5.27,5.27c2.91,0,5.27-2.36,5.27-5.27
			C33.03,19.32,30.68,16.96,27.76,16.96z"/>
		<path class="st0" d="M27.77,32.91c-2.33,0-4.22,1.89-4.22,4.22s1.89,4.22,4.22,4.22c2.33,0,4.22-1.89,4.22-4.22
			S30.09,32.91,27.77,32.91z"/>
		<path class="st0" d="M27.77,48.87c-1.75,0-3.16,1.42-3.16,3.16c0,1.75,1.42,3.16,3.16,3.16c1.75,0,3.16-1.42,3.16-3.16
			C30.93,50.28,29.51,48.87,27.77,48.87z"/>
		<path class="st0" d="M27.77,63.81c-1.16,0-2.11,0.94-2.11,2.11s0.94,2.11,2.11,2.11c1.16,0,2.11-0.94,2.11-2.11
			S28.93,63.81,27.77,63.81z"/>
		<path class="st0" d="M49.45,15.56c-2.33,0-4.21,1.89-4.21,4.21c0,2.33,1.89,4.21,4.21,4.21c2.33,0,4.21-1.89,4.21-4.21
			C53.67,17.45,51.78,15.56,49.45,15.56z"/>
		<path class="st0" d="M49.45,29.85c-1.74,0-3.16,1.42-3.16,3.16c0,1.75,1.42,3.16,3.16,3.16c1.75,0,3.16-1.42,3.16-3.16
			C52.61,31.27,51.2,29.85,49.45,29.85z"/>
		<path class="st0" d="M49.45,44.15c-1.16,0-2.11,0.94-2.11,2.11s0.94,2.11,2.11,2.11c1.16,0,2.11-0.94,2.11-2.11
			S50.62,44.15,49.45,44.15z"/>
		<path class="st0" d="M6.25,15.56c-2.33,0-4.21,1.89-4.21,4.21c0,2.33,1.89,4.21,4.21,4.21s4.21-1.89,4.21-4.21
			C10.46,17.45,8.57,15.56,6.25,15.56z"/>
		<path class="st0" d="M6.24,29.85c-1.74,0-3.16,1.42-3.16,3.16c0,1.75,1.42,3.16,3.16,3.16c1.75,0,3.16-1.42,3.16-3.16
			C9.41,31.27,7.99,29.85,6.24,29.85z"/>
		<path class="st0" d="M6.25,44.15c-1.16,0-2.11,0.94-2.11,2.11s0.94,2.11,2.11,2.11s2.11-0.94,2.11-2.11S7.41,44.15,6.25,44.15z"/>
	</g>
	<g>
		<path class="st1" d="M69.06,75.47c-0.58-0.35-1.04-0.83-1.39-1.43c-0.34-0.6-0.51-1.26-0.51-1.97c0-0.71,0.17-1.36,0.51-1.96
			c0.34-0.6,0.8-1.08,1.38-1.43c0.58-0.35,1.22-0.53,1.92-0.53c0.47,0,0.9,0.07,1.28,0.21c0.39,0.14,0.76,0.36,1.12,0.66
			c0.07,0.05,0.11,0.13,0.11,0.23c0,0.05-0.01,0.1-0.04,0.14c-0.03,0.04-0.06,0.07-0.11,0.09c-0.01,0.05-0.04,0.08-0.09,0.11
			c-0.05,0.03-0.09,0.04-0.15,0.04c-0.1,0-0.18-0.03-0.25-0.09c-0.25-0.23-0.53-0.4-0.83-0.5c-0.3-0.1-0.65-0.16-1.05-0.16
			c-0.55,0-1.06,0.15-1.53,0.44c-0.47,0.29-0.84,0.68-1.12,1.17s-0.42,1.02-0.42,1.59c0,0.58,0.14,1.12,0.41,1.61
			s0.65,0.88,1.12,1.17c0.47,0.29,0.98,0.43,1.54,0.43c0.71,0,1.36-0.23,1.93-0.69c0.07-0.05,0.14-0.08,0.22-0.08
			c0.1,0,0.18,0.03,0.25,0.1c0.07,0.07,0.11,0.16,0.11,0.27c0,0.1-0.04,0.2-0.11,0.27c-0.61,0.56-1.42,0.84-2.4,0.84
			C70.28,76,69.64,75.82,69.06,75.47z"/>
		<path class="st1" d="M78.06,70.58c0.16,0.07,0.24,0.17,0.24,0.3c0,0.04,0,0.07-0.01,0.09c-0.03,0.09-0.07,0.15-0.12,0.19
			c-0.06,0.03-0.13,0.05-0.23,0.05c-0.06,0-0.16-0.01-0.3-0.02c-0.05-0.01-0.13-0.01-0.23-0.01c-0.49,0-0.89,0.13-1.2,0.39
			c-0.31,0.26-0.47,0.6-0.47,1.02v2.93c0,0.12-0.03,0.21-0.1,0.27c-0.07,0.07-0.16,0.1-0.27,0.1c-0.12,0-0.21-0.03-0.27-0.1
			c-0.06-0.06-0.1-0.16-0.1-0.27v-4.62c0-0.12,0.03-0.21,0.1-0.27c0.07-0.06,0.16-0.1,0.27-0.1c0.12,0,0.21,0.03,0.27,0.1
			c0.06,0.07,0.1,0.16,0.1,0.27v0.43c0.19-0.27,0.43-0.49,0.73-0.64c0.29-0.15,0.61-0.23,0.95-0.23
			C77.69,70.48,77.9,70.51,78.06,70.58z"/>
		<path class="st1" d="M80.01,75.59c-0.42-0.24-0.74-0.56-0.98-0.98c-0.24-0.42-0.35-0.88-0.35-1.4c0-0.52,0.12-0.98,0.35-1.4
			c0.24-0.42,0.56-0.74,0.98-0.98c0.41-0.24,0.88-0.35,1.4-0.35c0.52,0,0.98,0.12,1.39,0.35s0.74,0.56,0.98,0.98
			c0.24,0.42,0.36,0.89,0.36,1.4c0,0.52-0.12,0.98-0.35,1.4s-0.56,0.74-0.98,0.98c-0.42,0.24-0.88,0.35-1.4,0.35
			C80.89,75.95,80.43,75.83,80.01,75.59z M82.43,75c0.3-0.18,0.54-0.42,0.71-0.73c0.17-0.31,0.26-0.66,0.26-1.04
			c0-0.39-0.08-0.74-0.26-1.05c-0.17-0.31-0.41-0.55-0.71-0.73c-0.3-0.18-0.64-0.26-1.02-0.26c-0.37,0-0.71,0.09-1.01,0.26
			c-0.3,0.18-0.54,0.42-0.72,0.73c-0.17,0.31-0.26,0.66-0.26,1.05c0,0.39,0.09,0.73,0.26,1.04c0.17,0.31,0.41,0.55,0.72,0.73
			c0.3,0.18,0.64,0.26,1.01,0.26C81.79,75.26,82.13,75.17,82.43,75z"/>
		<path class="st1" d="M86.31,75.74c-0.37-0.14-0.67-0.33-0.9-0.58c-0.07-0.08-0.1-0.15-0.1-0.23c0-0.11,0.05-0.21,0.16-0.29
			c0.08-0.06,0.16-0.09,0.25-0.09c0.11,0,0.21,0.05,0.28,0.14c0.16,0.18,0.36,0.32,0.62,0.42c0.26,0.1,0.54,0.15,0.86,0.15
			c0.46,0,0.8-0.08,1.03-0.24c0.23-0.16,0.35-0.36,0.35-0.62c0-0.24-0.11-0.43-0.34-0.59c-0.23-0.16-0.59-0.27-1.09-0.35
			c-0.64-0.1-1.12-0.29-1.44-0.54s-0.48-0.57-0.48-0.94c0-0.48,0.19-0.85,0.55-1.11c0.37-0.26,0.83-0.39,1.39-0.39
			c0.43,0,0.81,0.07,1.13,0.22c0.32,0.15,0.58,0.35,0.77,0.61c0.05,0.08,0.08,0.16,0.08,0.23c0,0.11-0.05,0.2-0.16,0.26
			c-0.05,0.03-0.11,0.05-0.19,0.05c-0.14,0-0.25-0.05-0.34-0.15c-0.32-0.36-0.76-0.55-1.31-0.55c-0.36,0-0.65,0.07-0.86,0.22
			c-0.22,0.15-0.32,0.33-0.32,0.55c0,0.24,0.1,0.42,0.3,0.56c0.2,0.14,0.56,0.25,1.08,0.34c0.7,0.12,1.2,0.31,1.5,0.57
			c0.3,0.26,0.45,0.59,0.45,0.98c0,0.3-0.09,0.57-0.27,0.8c-0.18,0.23-0.43,0.42-0.75,0.55c-0.32,0.13-0.68,0.2-1.09,0.2
			C87.07,75.95,86.68,75.88,86.31,75.74z"/>
		<path class="st1" d="M91.59,75.74c-0.37-0.14-0.67-0.33-0.9-0.58c-0.07-0.08-0.1-0.15-0.1-0.23c0-0.11,0.05-0.21,0.16-0.29
			c0.08-0.06,0.16-0.09,0.25-0.09c0.11,0,0.21,0.05,0.28,0.14c0.16,0.18,0.36,0.32,0.62,0.42c0.26,0.1,0.54,0.15,0.86,0.15
			c0.46,0,0.8-0.08,1.03-0.24c0.23-0.16,0.35-0.36,0.35-0.62c0-0.24-0.11-0.43-0.34-0.59c-0.23-0.16-0.59-0.27-1.09-0.35
			c-0.64-0.1-1.12-0.29-1.44-0.54c-0.32-0.26-0.48-0.57-0.48-0.94c0-0.48,0.19-0.85,0.55-1.11c0.37-0.26,0.83-0.39,1.39-0.39
			c0.43,0,0.81,0.07,1.13,0.22c0.32,0.15,0.58,0.35,0.77,0.61c0.05,0.08,0.08,0.16,0.08,0.23c0,0.11-0.05,0.2-0.16,0.26
			c-0.05,0.03-0.11,0.05-0.19,0.05c-0.14,0-0.25-0.05-0.34-0.15c-0.32-0.36-0.76-0.55-1.31-0.55c-0.36,0-0.65,0.07-0.86,0.22
			c-0.22,0.15-0.32,0.33-0.32,0.55c0,0.24,0.1,0.42,0.3,0.56c0.2,0.14,0.56,0.25,1.08,0.34c0.7,0.12,1.2,0.31,1.5,0.57
			c0.3,0.26,0.45,0.59,0.45,0.98c0,0.3-0.09,0.57-0.27,0.8c-0.18,0.23-0.43,0.42-0.75,0.55c-0.32,0.13-0.68,0.2-1.09,0.2
			C92.36,75.95,91.97,75.88,91.59,75.74z"/>
		<path class="st1" d="M95.77,73.49c-0.07-0.07-0.11-0.16-0.11-0.26c0-0.11,0.03-0.2,0.1-0.27c0.07-0.07,0.16-0.11,0.27-0.11h2.3
			c0.11,0,0.2,0.04,0.27,0.11c0.07,0.07,0.11,0.16,0.11,0.27c0,0.1-0.04,0.19-0.11,0.26c-0.07,0.07-0.16,0.11-0.27,0.11h-2.3
			C95.93,73.59,95.84,73.56,95.77,73.49z"/>
		<path class="st1" d="M101.45,75.47c-0.58-0.35-1.04-0.83-1.39-1.43c-0.34-0.6-0.51-1.26-0.51-1.97c0-0.71,0.17-1.36,0.51-1.96
			c0.34-0.6,0.8-1.08,1.38-1.43c0.58-0.35,1.22-0.53,1.92-0.53c0.47,0,0.9,0.07,1.28,0.21c0.39,0.14,0.76,0.36,1.12,0.66
			c0.07,0.05,0.11,0.13,0.11,0.23c0,0.05-0.01,0.1-0.04,0.14c-0.03,0.04-0.06,0.07-0.11,0.09c-0.01,0.05-0.04,0.08-0.09,0.11
			c-0.05,0.03-0.09,0.04-0.15,0.04c-0.1,0-0.18-0.03-0.25-0.09c-0.25-0.23-0.53-0.4-0.83-0.5c-0.3-0.1-0.65-0.16-1.05-0.16
			c-0.55,0-1.06,0.15-1.53,0.44c-0.47,0.29-0.84,0.68-1.12,1.17c-0.28,0.49-0.42,1.02-0.42,1.59c0,0.58,0.14,1.12,0.41,1.61
			c0.27,0.49,0.65,0.88,1.12,1.17c0.47,0.29,0.98,0.43,1.54,0.43c0.71,0,1.36-0.23,1.93-0.69c0.07-0.05,0.14-0.08,0.22-0.08
			c0.1,0,0.18,0.03,0.25,0.1c0.07,0.07,0.11,0.16,0.11,0.27c0,0.1-0.04,0.2-0.11,0.27c-0.61,0.56-1.42,0.84-2.4,0.84
			C102.67,76,102.03,75.82,101.45,75.47z"/>
		<path class="st1" d="M111.17,70.77c0.37,0.2,0.66,0.48,0.87,0.86c0.21,0.38,0.31,0.82,0.31,1.35v2.55c0,0.1-0.04,0.19-0.11,0.26
			c-0.07,0.07-0.16,0.11-0.26,0.11c-0.11,0-0.2-0.04-0.27-0.11c-0.07-0.07-0.11-0.16-0.11-0.26v-2.55c0-0.58-0.16-1.02-0.48-1.33
			c-0.32-0.3-0.75-0.46-1.27-0.46c-0.32,0-0.61,0.06-0.87,0.19c-0.26,0.12-0.46,0.3-0.61,0.51c-0.15,0.22-0.23,0.46-0.23,0.73v2.9
			c0,0.11-0.03,0.2-0.1,0.27c-0.07,0.07-0.16,0.1-0.27,0.1c-0.11,0-0.2-0.03-0.27-0.1c-0.07-0.07-0.11-0.16-0.11-0.27v-6.9
			c0-0.11,0.04-0.2,0.11-0.27c0.07-0.07,0.16-0.11,0.27-0.11c0.11,0,0.2,0.04,0.27,0.11c0.07,0.07,0.1,0.16,0.1,0.27v2.63
			c0.22-0.24,0.48-0.43,0.78-0.57c0.31-0.14,0.64-0.21,1-0.21C110.38,70.48,110.8,70.58,111.17,70.77z"/>
		<path class="st1" d="M117.84,70.84c0.42,0.24,0.74,0.57,0.98,0.99c0.24,0.42,0.36,0.88,0.36,1.39v2.3c0,0.1-0.04,0.19-0.11,0.26
			c-0.07,0.07-0.16,0.11-0.27,0.11c-0.11,0-0.2-0.03-0.27-0.1c-0.07-0.07-0.11-0.16-0.11-0.27v-0.59c-0.23,0.31-0.52,0.56-0.87,0.74
			c-0.35,0.18-0.74,0.27-1.17,0.27c-0.5,0-0.95-0.12-1.35-0.36c-0.4-0.24-0.72-0.56-0.95-0.98c-0.23-0.41-0.35-0.88-0.35-1.39
			c0-0.51,0.12-0.97,0.36-1.39c0.24-0.42,0.56-0.75,0.98-0.99c0.42-0.24,0.88-0.36,1.39-0.36S117.43,70.61,117.84,70.84z M117.47,75
			c0.3-0.18,0.54-0.42,0.71-0.73c0.17-0.31,0.26-0.66,0.26-1.04c0-0.39-0.09-0.73-0.26-1.04c-0.17-0.31-0.41-0.55-0.71-0.73
			c-0.3-0.18-0.64-0.27-1.01-0.27s-0.71,0.09-1.01,0.27c-0.3,0.18-0.54,0.42-0.72,0.73c-0.17,0.31-0.26,0.66-0.26,1.04
			c0,0.39,0.09,0.73,0.26,1.04c0.17,0.31,0.41,0.55,0.72,0.73s0.64,0.26,1.01,0.26S117.17,75.17,117.47,75z"/>
		<path class="st1" d="M124.44,70.77c0.37,0.2,0.66,0.48,0.87,0.86c0.21,0.38,0.31,0.82,0.31,1.35v2.55c0,0.1-0.04,0.19-0.11,0.26
			c-0.07,0.07-0.16,0.11-0.26,0.11c-0.11,0-0.2-0.04-0.27-0.11c-0.07-0.07-0.11-0.16-0.11-0.26v-2.55c0-0.58-0.16-1.02-0.48-1.33
			c-0.32-0.3-0.75-0.46-1.27-0.46c-0.32,0-0.61,0.06-0.87,0.19c-0.26,0.12-0.46,0.3-0.61,0.51c-0.15,0.22-0.23,0.46-0.23,0.73v2.9
			c0,0.11-0.03,0.2-0.1,0.27c-0.07,0.07-0.16,0.1-0.27,0.1c-0.11,0-0.2-0.03-0.27-0.1c-0.07-0.07-0.11-0.16-0.11-0.27v-4.61
			c0-0.11,0.04-0.2,0.11-0.27c0.07-0.07,0.16-0.11,0.27-0.11c0.11,0,0.2,0.04,0.27,0.11c0.07,0.07,0.1,0.16,0.1,0.27v0.33
			c0.22-0.24,0.48-0.43,0.78-0.57c0.31-0.14,0.64-0.21,1-0.21C123.65,70.48,124.07,70.58,124.44,70.77z"/>
		<path class="st1" d="M131.07,70.77c0.37,0.2,0.66,0.48,0.87,0.86c0.21,0.38,0.31,0.82,0.31,1.35v2.55c0,0.1-0.04,0.19-0.11,0.26
			c-0.07,0.07-0.16,0.11-0.26,0.11c-0.11,0-0.2-0.04-0.27-0.11c-0.07-0.07-0.11-0.16-0.11-0.26v-2.55c0-0.58-0.16-1.02-0.48-1.33
			c-0.32-0.3-0.75-0.46-1.27-0.46c-0.32,0-0.61,0.06-0.87,0.19c-0.26,0.12-0.46,0.3-0.61,0.51c-0.15,0.22-0.23,0.46-0.23,0.73v2.9
			c0,0.11-0.03,0.2-0.1,0.27c-0.07,0.07-0.16,0.1-0.27,0.1c-0.11,0-0.2-0.03-0.27-0.1c-0.07-0.07-0.11-0.16-0.11-0.27v-4.61
			c0-0.11,0.04-0.2,0.11-0.27c0.07-0.07,0.16-0.11,0.27-0.11c0.11,0,0.2,0.04,0.27,0.11c0.07,0.07,0.1,0.16,0.1,0.27v0.33
			c0.22-0.24,0.48-0.43,0.78-0.57c0.31-0.14,0.64-0.21,1-0.21C130.29,70.48,130.71,70.58,131.07,70.77z"/>
		<path class="st1" d="M137.49,70.83c0.37,0.23,0.66,0.54,0.87,0.94c0.21,0.4,0.31,0.85,0.31,1.36c0,0.1-0.03,0.19-0.1,0.25
			c-0.07,0.06-0.15,0.09-0.26,0.09h-3.96c0.05,0.54,0.26,0.97,0.63,1.3c0.37,0.33,0.82,0.5,1.37,0.5c0.24,0,0.47-0.04,0.71-0.12
			c0.24-0.08,0.43-0.18,0.57-0.31c0.08-0.07,0.17-0.1,0.27-0.1c0.07,0,0.14,0.03,0.22,0.08c0.08,0.08,0.13,0.17,0.13,0.26
			c0,0.08-0.04,0.16-0.11,0.23c-0.22,0.18-0.49,0.33-0.82,0.46c-0.33,0.12-0.65,0.18-0.96,0.18c-0.52,0-0.99-0.12-1.4-0.35
			c-0.41-0.23-0.73-0.55-0.97-0.97c-0.23-0.42-0.35-0.88-0.35-1.41c0-0.53,0.11-1,0.33-1.42s0.52-0.74,0.91-0.97
			c0.39-0.23,0.83-0.35,1.33-0.35C136.69,70.49,137.12,70.6,137.49,70.83z M134.97,71.62c-0.33,0.31-0.53,0.71-0.6,1.22h3.59
			c-0.05-0.5-0.23-0.91-0.55-1.22c-0.31-0.31-0.72-0.46-1.21-0.46C135.71,71.16,135.3,71.32,134.97,71.62z"/>
		<path class="st1" d="M140.12,75.42c-0.25-0.32-0.38-0.72-0.38-1.22v-5.59c0-0.11,0.04-0.2,0.11-0.27c0.07-0.07,0.16-0.1,0.26-0.1
			c0.11,0,0.2,0.03,0.27,0.1c0.07,0.07,0.1,0.16,0.1,0.27v5.59c0,0.28,0.06,0.51,0.17,0.69c0.11,0.18,0.26,0.26,0.44,0.26h0.24
			c0.1,0,0.18,0.03,0.24,0.1c0.06,0.07,0.09,0.16,0.09,0.27c0,0.11-0.04,0.2-0.12,0.27c-0.08,0.07-0.19,0.1-0.32,0.1h-0.13
			C140.7,75.9,140.37,75.74,140.12,75.42z"/>
		<path class="st1" d="M151.45,75.52c0,0.1-0.04,0.19-0.11,0.27s-0.17,0.11-0.27,0.11c-0.17,0-0.29-0.08-0.36-0.24l-0.66-1.59h-3.79
			l-0.66,1.59c-0.05,0.16-0.17,0.24-0.35,0.24c-0.11,0-0.2-0.04-0.27-0.11c-0.07-0.07-0.1-0.17-0.1-0.27c0-0.07,0.01-0.12,0.03-0.17
			l2.88-6.84c0.07-0.18,0.2-0.26,0.37-0.26c0.18,0,0.3,0.09,0.36,0.26l2.89,6.85C151.44,75.4,151.45,75.46,151.45,75.52z
			 M146.53,73.42h3.25l-1.63-3.93L146.53,73.42z"/>
		<path class="st1" d="M157.55,70.91v2.3c0,0.51-0.12,0.97-0.36,1.39c-0.24,0.42-0.57,0.75-0.98,0.98
			c-0.41,0.24-0.88,0.36-1.39,0.36c-0.51,0-0.97-0.12-1.39-0.36c-0.42-0.24-0.74-0.57-0.98-0.98c-0.24-0.42-0.36-0.88-0.36-1.39
			s0.12-0.97,0.35-1.39c0.23-0.41,0.55-0.74,0.95-0.98c0.4-0.24,0.85-0.36,1.35-0.36c0.42,0,0.81,0.09,1.17,0.27
			c0.35,0.18,0.64,0.43,0.87,0.74v-2.87c0-0.11,0.04-0.2,0.11-0.27c0.07-0.07,0.16-0.11,0.27-0.11c0.11,0,0.2,0.04,0.27,0.11
			c0.07,0.07,0.1,0.16,0.1,0.27v2.2C157.55,70.84,157.55,70.87,157.55,70.91z M155.83,74.99c0.3-0.18,0.54-0.43,0.71-0.74
			s0.26-0.66,0.26-1.04c0-0.11,0-0.19-0.01-0.25c-0.01-0.01-0.01-0.03-0.01-0.05c-0.06-0.51-0.28-0.93-0.64-1.25
			c-0.36-0.33-0.8-0.49-1.32-0.49c-0.37,0-0.71,0.09-1.01,0.26c-0.3,0.18-0.54,0.42-0.72,0.73c-0.17,0.31-0.26,0.66-0.26,1.04
			s0.09,0.73,0.26,1.04s0.41,0.56,0.72,0.74s0.64,0.27,1.01,0.27C155.2,75.26,155.53,75.17,155.83,74.99z"/>
		<path class="st1" d="M163.46,70.88c0,0.04-0.01,0.08-0.03,0.14l-2.15,4.63c-0.08,0.17-0.21,0.25-0.37,0.25
			c-0.16,0-0.27-0.08-0.35-0.25l-2.18-4.62c-0.02-0.04-0.03-0.08-0.03-0.14c0-0.14,0.07-0.24,0.22-0.31
			c0.05-0.03,0.1-0.04,0.16-0.04c0.07,0,0.13,0.02,0.18,0.05c0.05,0.03,0.1,0.08,0.12,0.15l1.88,4.08l1.86-4.08
			c0.03-0.06,0.07-0.12,0.13-0.15c0.06-0.04,0.12-0.05,0.2-0.05c0.06,0,0.11,0.01,0.16,0.04C163.39,70.63,163.46,70.74,163.46,70.88
			z"/>
		<path class="st1" d="M167.81,70.83c0.37,0.23,0.66,0.54,0.87,0.94c0.21,0.4,0.31,0.85,0.31,1.36c0,0.1-0.03,0.19-0.1,0.25
			c-0.07,0.06-0.15,0.09-0.26,0.09h-3.96c0.05,0.54,0.26,0.97,0.63,1.3c0.37,0.33,0.82,0.5,1.37,0.5c0.24,0,0.47-0.04,0.71-0.12
			c0.24-0.08,0.43-0.18,0.57-0.31c0.08-0.07,0.17-0.1,0.27-0.1c0.07,0,0.14,0.03,0.22,0.08c0.08,0.08,0.13,0.17,0.13,0.26
			c0,0.08-0.04,0.16-0.11,0.23c-0.22,0.18-0.49,0.33-0.82,0.46c-0.33,0.12-0.65,0.18-0.96,0.18c-0.52,0-0.99-0.12-1.4-0.35
			c-0.41-0.23-0.73-0.55-0.97-0.97c-0.23-0.42-0.35-0.88-0.35-1.41c0-0.53,0.11-1,0.33-1.42s0.52-0.74,0.91-0.97
			c0.39-0.23,0.83-0.35,1.33-0.35C167.01,70.49,167.44,70.6,167.81,70.83z M165.29,71.62c-0.33,0.31-0.53,0.71-0.6,1.22h3.59
			c-0.05-0.5-0.23-0.91-0.55-1.22c-0.31-0.31-0.72-0.46-1.21-0.46C166.03,71.16,165.62,71.32,165.29,71.62z"/>
		<path class="st1" d="M173.33,70.58c0.16,0.07,0.24,0.17,0.24,0.3c0,0.04,0,0.07-0.01,0.09c-0.03,0.09-0.07,0.15-0.12,0.19
			c-0.06,0.03-0.13,0.05-0.23,0.05c-0.06,0-0.16-0.01-0.3-0.02c-0.05-0.01-0.13-0.01-0.23-0.01c-0.49,0-0.89,0.13-1.2,0.39
			c-0.31,0.26-0.47,0.6-0.47,1.02v2.93c0,0.12-0.03,0.21-0.1,0.27c-0.07,0.07-0.16,0.1-0.27,0.1s-0.21-0.03-0.27-0.1
			c-0.06-0.06-0.1-0.16-0.1-0.27v-4.62c0-0.12,0.03-0.21,0.1-0.27c0.07-0.06,0.16-0.1,0.27-0.1s0.21,0.03,0.27,0.1
			c0.06,0.07,0.1,0.16,0.1,0.27v0.43c0.19-0.27,0.43-0.49,0.73-0.64c0.29-0.15,0.61-0.23,0.95-0.23
			C172.96,70.48,173.17,70.51,173.33,70.58z"/>
		<path class="st1" d="M177.37,75.25c0.06,0.07,0.1,0.16,0.1,0.27c0,0.1-0.04,0.19-0.12,0.26c-0.08,0.07-0.18,0.11-0.29,0.11h-0.21
			c-0.35,0-0.66-0.08-0.93-0.25c-0.27-0.17-0.49-0.39-0.64-0.68c-0.15-0.28-0.23-0.61-0.23-0.97v-2.62h-0.64
			c-0.1,0-0.19-0.03-0.25-0.09c-0.06-0.06-0.09-0.14-0.09-0.23c0-0.1,0.03-0.18,0.09-0.24c0.06-0.06,0.15-0.09,0.25-0.09h0.64v-1.52
			c0-0.11,0.03-0.2,0.1-0.27c0.07-0.07,0.16-0.11,0.27-0.11c0.11,0,0.2,0.04,0.27,0.11c0.07,0.07,0.11,0.16,0.11,0.27v1.52h1.11
			c0.1,0,0.19,0.03,0.25,0.09c0.06,0.06,0.09,0.14,0.09,0.24c0,0.09-0.03,0.17-0.09,0.23c-0.06,0.06-0.15,0.09-0.25,0.09h-1.11v2.62
			c0,0.33,0.1,0.61,0.29,0.82c0.2,0.21,0.45,0.32,0.76,0.32h0.26C177.22,75.14,177.3,75.18,177.37,75.25z"/>
		<path class="st1" d="M178.84,69.36c-0.1-0.1-0.15-0.23-0.15-0.38c0-0.16,0.05-0.28,0.16-0.38c0.1-0.1,0.23-0.15,0.38-0.15
			c0.14,0,0.27,0.05,0.37,0.15c0.1,0.1,0.16,0.23,0.16,0.38c0,0.15-0.05,0.28-0.16,0.38c-0.1,0.1-0.23,0.16-0.38,0.16
			C179.07,69.52,178.94,69.47,178.84,69.36z M178.95,75.79c-0.07-0.07-0.11-0.16-0.11-0.27v-4.6c0-0.11,0.04-0.2,0.11-0.27
			c0.07-0.07,0.16-0.11,0.27-0.11c0.11,0,0.2,0.04,0.27,0.11c0.07,0.07,0.1,0.16,0.1,0.27v4.6c0,0.11-0.03,0.2-0.1,0.27
			c-0.07,0.07-0.16,0.11-0.27,0.11C179.12,75.9,179.03,75.86,178.95,75.79z"/>
		<path class="st1" d="M182.23,75.74c-0.37-0.14-0.67-0.33-0.9-0.58c-0.07-0.08-0.1-0.15-0.1-0.23c0-0.11,0.05-0.21,0.16-0.29
			c0.08-0.06,0.16-0.09,0.25-0.09c0.11,0,0.21,0.05,0.28,0.14c0.16,0.18,0.36,0.32,0.62,0.42c0.26,0.1,0.54,0.15,0.86,0.15
			c0.46,0,0.8-0.08,1.03-0.24c0.23-0.16,0.35-0.36,0.35-0.62c0-0.24-0.11-0.43-0.34-0.59c-0.23-0.16-0.59-0.27-1.09-0.35
			c-0.64-0.1-1.12-0.29-1.44-0.54c-0.32-0.26-0.48-0.57-0.48-0.94c0-0.48,0.19-0.85,0.55-1.11c0.37-0.26,0.83-0.39,1.39-0.39
			c0.43,0,0.81,0.07,1.13,0.22c0.32,0.15,0.58,0.35,0.77,0.61c0.05,0.08,0.08,0.16,0.08,0.23c0,0.11-0.05,0.2-0.16,0.26
			c-0.05,0.03-0.11,0.05-0.19,0.05c-0.14,0-0.25-0.05-0.34-0.15c-0.32-0.36-0.76-0.55-1.31-0.55c-0.36,0-0.65,0.07-0.86,0.22
			c-0.22,0.15-0.32,0.33-0.32,0.55c0,0.24,0.1,0.42,0.3,0.56c0.2,0.14,0.56,0.25,1.08,0.34c0.7,0.12,1.2,0.31,1.5,0.57
			c0.3,0.26,0.45,0.59,0.45,0.98c0,0.3-0.09,0.57-0.27,0.8c-0.18,0.23-0.43,0.42-0.75,0.55c-0.32,0.13-0.68,0.2-1.09,0.2
			C182.99,75.95,182.6,75.88,182.23,75.74z"/>
		<path class="st1" d="M186.96,69.36c-0.1-0.1-0.15-0.23-0.15-0.38c0-0.16,0.05-0.28,0.16-0.38c0.1-0.1,0.23-0.15,0.38-0.15
			c0.14,0,0.27,0.05,0.37,0.15c0.1,0.1,0.16,0.23,0.16,0.38c0,0.15-0.05,0.28-0.16,0.38c-0.1,0.1-0.23,0.16-0.38,0.16
			C187.18,69.52,187.06,69.47,186.96,69.36z M187.07,75.79c-0.07-0.07-0.11-0.16-0.11-0.27v-4.6c0-0.11,0.04-0.2,0.11-0.27
			c0.07-0.07,0.16-0.11,0.27-0.11c0.11,0,0.2,0.04,0.27,0.11c0.07,0.07,0.1,0.16,0.1,0.27v4.6c0,0.11-0.03,0.2-0.1,0.27
			c-0.07,0.07-0.16,0.11-0.27,0.11C187.23,75.9,187.14,75.86,187.07,75.79z"/>
		<path class="st1" d="M193.42,70.77c0.37,0.2,0.66,0.48,0.87,0.86c0.21,0.38,0.31,0.82,0.31,1.35v2.55c0,0.1-0.04,0.19-0.11,0.26
			c-0.07,0.07-0.16,0.11-0.26,0.11c-0.11,0-0.2-0.04-0.27-0.11c-0.07-0.07-0.11-0.16-0.11-0.26v-2.55c0-0.58-0.16-1.02-0.48-1.33
			c-0.32-0.3-0.75-0.46-1.27-0.46c-0.32,0-0.61,0.06-0.87,0.19c-0.26,0.12-0.46,0.3-0.61,0.51c-0.15,0.22-0.23,0.46-0.23,0.73v2.9
			c0,0.11-0.03,0.2-0.1,0.27c-0.07,0.07-0.16,0.1-0.27,0.1c-0.11,0-0.2-0.03-0.27-0.1c-0.07-0.07-0.11-0.16-0.11-0.27v-4.61
			c0-0.11,0.04-0.2,0.11-0.27c0.07-0.07,0.16-0.11,0.27-0.11c0.11,0,0.2,0.04,0.27,0.11c0.07,0.07,0.1,0.16,0.1,0.27v0.33
			c0.22-0.24,0.48-0.43,0.78-0.57c0.31-0.14,0.64-0.21,1-0.21C192.64,70.48,193.06,70.58,193.42,70.77z"/>
		<path class="st1" d="M200.11,70.83c0.41,0.23,0.73,0.56,0.97,0.97s0.35,0.89,0.35,1.42v2c0,0.52-0.12,1-0.35,1.42
			c-0.23,0.43-0.55,0.76-0.97,1c-0.41,0.25-0.87,0.37-1.39,0.37c-0.5,0-0.95-0.09-1.34-0.28c-0.39-0.19-0.72-0.45-0.99-0.79
			c-0.06-0.07-0.09-0.14-0.09-0.23c0-0.1,0.05-0.18,0.14-0.25c0.07-0.05,0.14-0.07,0.22-0.07c0.06,0,0.12,0.01,0.18,0.04
			c0.06,0.03,0.1,0.07,0.14,0.11c0.2,0.25,0.44,0.44,0.74,0.58s0.64,0.21,1.02,0.21c0.37,0,0.7-0.09,1-0.27
			c0.3-0.18,0.53-0.43,0.7-0.76c0.17-0.32,0.26-0.69,0.26-1.11v-0.44c-0.2,0.37-0.47,0.66-0.83,0.88c-0.36,0.21-0.77,0.32-1.22,0.32
			c-0.51,0-0.97-0.12-1.37-0.35c-0.4-0.23-0.72-0.55-0.94-0.97s-0.34-0.88-0.34-1.41c0-0.53,0.12-1,0.35-1.42s0.56-0.74,0.98-0.97
			c0.41-0.23,0.88-0.35,1.4-0.35C199.23,70.49,199.7,70.6,200.11,70.83z M199.73,75c0.3-0.17,0.54-0.42,0.71-0.73
			c0.17-0.31,0.26-0.66,0.26-1.05c0-0.39-0.08-0.74-0.26-1.05c-0.17-0.31-0.41-0.55-0.71-0.73c-0.3-0.18-0.64-0.26-1.02-0.26
			c-0.39,0-0.73,0.09-1.03,0.26c-0.3,0.18-0.54,0.42-0.71,0.73c-0.17,0.31-0.26,0.66-0.26,1.05c0,0.39,0.08,0.74,0.26,1.05
			c0.17,0.31,0.41,0.55,0.71,0.73c0.3,0.17,0.64,0.26,1.03,0.26C199.09,75.26,199.43,75.17,199.73,75z"/>
		<path class="st1" d="M205.98,75.79c-0.07-0.07-0.11-0.16-0.11-0.27v-6.89c0-0.11,0.04-0.2,0.11-0.27
			c0.07-0.07,0.16-0.11,0.27-0.11h1.96c0.48,0,0.9,0.11,1.28,0.32c0.38,0.21,0.67,0.51,0.88,0.88c0.21,0.38,0.31,0.81,0.31,1.29
			c0,0.48-0.1,0.9-0.31,1.27c-0.21,0.37-0.5,0.66-0.88,0.87c-0.38,0.21-0.8,0.31-1.28,0.31h-1.58v2.32c0,0.11-0.04,0.2-0.11,0.27
			c-0.07,0.07-0.16,0.11-0.27,0.11C206.15,75.9,206.06,75.86,205.98,75.79z M208.22,72.46c0.33,0,0.63-0.07,0.89-0.22
			s0.47-0.35,0.61-0.61c0.15-0.26,0.22-0.56,0.22-0.89c0-0.34-0.07-0.64-0.22-0.91c-0.15-0.26-0.35-0.47-0.61-0.62
			c-0.26-0.15-0.56-0.23-0.89-0.23h-1.58v3.48H208.22z"/>
		<path class="st1" d="M211.96,75.42c-0.25-0.32-0.38-0.72-0.38-1.22v-5.59c0-0.11,0.04-0.2,0.11-0.27c0.07-0.07,0.16-0.1,0.26-0.1
			c0.11,0,0.2,0.03,0.27,0.1c0.07,0.07,0.1,0.16,0.1,0.27v5.59c0,0.28,0.06,0.51,0.17,0.69c0.11,0.18,0.26,0.26,0.44,0.26h0.24
			c0.1,0,0.18,0.03,0.24,0.1c0.06,0.07,0.09,0.16,0.09,0.27c0,0.11-0.04,0.2-0.12,0.27c-0.08,0.07-0.19,0.1-0.32,0.1h-0.13
			C212.53,75.9,212.21,75.74,211.96,75.42z"/>
		<path class="st1" d="M218.19,70.84c0.42,0.24,0.74,0.57,0.98,0.99c0.24,0.42,0.36,0.88,0.36,1.39v2.3c0,0.1-0.04,0.19-0.11,0.26
			c-0.07,0.07-0.16,0.11-0.27,0.11c-0.11,0-0.2-0.03-0.27-0.1c-0.07-0.07-0.11-0.16-0.11-0.27v-0.59c-0.23,0.31-0.52,0.56-0.87,0.74
			c-0.35,0.18-0.74,0.27-1.17,0.27c-0.5,0-0.95-0.12-1.35-0.36c-0.4-0.24-0.72-0.56-0.95-0.98c-0.23-0.41-0.35-0.88-0.35-1.39
			c0-0.51,0.12-0.97,0.36-1.39c0.24-0.42,0.56-0.75,0.98-0.99c0.42-0.24,0.88-0.36,1.39-0.36
			C217.31,70.49,217.78,70.61,218.19,70.84z M217.81,75c0.3-0.18,0.54-0.42,0.71-0.73c0.17-0.31,0.26-0.66,0.26-1.04
			c0-0.39-0.09-0.73-0.26-1.04c-0.17-0.31-0.41-0.55-0.71-0.73c-0.3-0.18-0.64-0.27-1.01-0.27c-0.37,0-0.71,0.09-1.01,0.27
			c-0.3,0.18-0.54,0.42-0.72,0.73c-0.17,0.31-0.26,0.66-0.26,1.04c0,0.39,0.09,0.73,0.26,1.04c0.17,0.31,0.41,0.55,0.72,0.73
			s0.64,0.26,1.01,0.26C217.18,75.26,217.51,75.17,217.81,75z"/>
		<path class="st1" d="M223.61,75.25c0.06,0.07,0.1,0.16,0.1,0.27c0,0.1-0.04,0.19-0.12,0.26c-0.08,0.07-0.18,0.11-0.29,0.11h-0.21
			c-0.35,0-0.66-0.08-0.93-0.25c-0.27-0.17-0.49-0.39-0.64-0.68c-0.15-0.28-0.23-0.61-0.23-0.97v-2.62h-0.64
			c-0.1,0-0.19-0.03-0.25-0.09c-0.06-0.06-0.09-0.14-0.09-0.23c0-0.1,0.03-0.18,0.09-0.24c0.06-0.06,0.15-0.09,0.25-0.09h0.64v-1.52
			c0-0.11,0.03-0.2,0.1-0.27c0.07-0.07,0.16-0.11,0.27-0.11c0.11,0,0.2,0.04,0.27,0.11c0.07,0.07,0.11,0.16,0.11,0.27v1.52h1.11
			c0.1,0,0.19,0.03,0.25,0.09c0.06,0.06,0.09,0.14,0.09,0.24c0,0.09-0.03,0.17-0.09,0.23c-0.06,0.06-0.15,0.09-0.25,0.09h-1.11v2.62
			c0,0.33,0.1,0.61,0.29,0.82c0.2,0.21,0.45,0.32,0.76,0.32h0.26C223.46,75.14,223.55,75.18,223.61,75.25z"/>
		<path class="st1" d="M226.32,69.36c-0.22,0.29-0.33,0.67-0.33,1.15v0.23h1.18c0.1,0,0.19,0.03,0.25,0.09
			c0.06,0.06,0.09,0.14,0.09,0.24c0,0.09-0.03,0.17-0.09,0.23c-0.06,0.06-0.15,0.09-0.25,0.09H226v4.13c0,0.12-0.03,0.21-0.1,0.28
			c-0.07,0.07-0.17,0.1-0.29,0.1c-0.1,0-0.19-0.03-0.26-0.1c-0.07-0.07-0.1-0.16-0.1-0.28v-4.13h-0.63c-0.1,0-0.19-0.03-0.25-0.09
			c-0.06-0.06-0.09-0.14-0.09-0.23c0-0.1,0.03-0.18,0.09-0.24c0.06-0.06,0.15-0.09,0.25-0.09h0.63v-0.19c0-0.7,0.18-1.26,0.54-1.68
			c0.36-0.42,0.86-0.63,1.52-0.63c0.11,0,0.2,0.03,0.27,0.1c0.07,0.06,0.11,0.15,0.11,0.24s-0.04,0.18-0.11,0.25
			c-0.07,0.06-0.16,0.1-0.27,0.1C226.87,68.93,226.54,69.07,226.32,69.36z"/>
		<path class="st1" d="M229.49,75.59c-0.42-0.24-0.74-0.56-0.98-0.98s-0.35-0.88-0.35-1.4c0-0.52,0.12-0.98,0.35-1.4
			c0.24-0.42,0.56-0.74,0.98-0.98c0.41-0.24,0.88-0.35,1.4-0.35c0.52,0,0.98,0.12,1.39,0.35c0.41,0.24,0.74,0.56,0.98,0.98
			c0.24,0.42,0.36,0.89,0.36,1.4c0,0.52-0.12,0.98-0.35,1.4s-0.56,0.74-0.98,0.98c-0.42,0.24-0.88,0.35-1.4,0.35
			C230.37,75.95,229.9,75.83,229.49,75.59z M231.91,75c0.3-0.18,0.54-0.42,0.71-0.73c0.17-0.31,0.26-0.66,0.26-1.04
			c0-0.39-0.08-0.74-0.26-1.05c-0.17-0.31-0.41-0.55-0.71-0.73c-0.3-0.18-0.64-0.26-1.02-0.26c-0.37,0-0.71,0.09-1.01,0.26
			c-0.3,0.18-0.54,0.42-0.72,0.73c-0.17,0.31-0.26,0.66-0.26,1.05c0,0.39,0.09,0.73,0.26,1.04c0.17,0.31,0.41,0.55,0.72,0.73
			s0.64,0.26,1.01,0.26C231.27,75.26,231.61,75.17,231.91,75z"/>
		<path class="st1" d="M238.15,70.58c0.16,0.07,0.24,0.17,0.24,0.3c0,0.04,0,0.07-0.01,0.09c-0.03,0.09-0.07,0.15-0.12,0.19
			c-0.06,0.03-0.13,0.05-0.23,0.05c-0.06,0-0.16-0.01-0.3-0.02c-0.05-0.01-0.13-0.01-0.23-0.01c-0.49,0-0.89,0.13-1.2,0.39
			c-0.31,0.26-0.47,0.6-0.47,1.02v2.93c0,0.12-0.03,0.21-0.1,0.27c-0.07,0.07-0.16,0.1-0.27,0.1s-0.21-0.03-0.27-0.1
			c-0.06-0.06-0.1-0.16-0.1-0.27v-4.62c0-0.12,0.03-0.21,0.1-0.27c0.07-0.06,0.16-0.1,0.27-0.1s0.21,0.03,0.27,0.1
			c0.06,0.07,0.1,0.16,0.1,0.27v0.43c0.19-0.27,0.43-0.49,0.73-0.64c0.29-0.15,0.61-0.23,0.95-0.23
			C237.78,70.48,237.99,70.51,238.15,70.58z"/>
		<path class="st1" d="M246.24,70.75c0.3,0.18,0.53,0.44,0.7,0.78c0.17,0.34,0.25,0.73,0.25,1.17v2.82c0,0.11-0.03,0.2-0.1,0.27
			c-0.07,0.07-0.16,0.1-0.27,0.1c-0.11,0-0.2-0.03-0.27-0.1c-0.07-0.07-0.11-0.16-0.11-0.27V72.7c0-0.46-0.12-0.83-0.36-1.1
			c-0.24-0.27-0.55-0.41-0.94-0.41c-0.41,0-0.74,0.14-1,0.41c-0.25,0.27-0.38,0.63-0.37,1.08v0.02v2.82c0,0.11-0.03,0.2-0.1,0.27
			c-0.07,0.07-0.16,0.1-0.27,0.1s-0.2-0.03-0.27-0.1c-0.07-0.07-0.11-0.16-0.11-0.27V72.7c0-0.46-0.12-0.83-0.36-1.1
			c-0.24-0.27-0.55-0.41-0.94-0.41c-0.41,0-0.74,0.13-1,0.4c-0.26,0.27-0.39,0.61-0.39,1.03v2.9c0,0.11-0.03,0.2-0.1,0.27
			c-0.07,0.07-0.16,0.1-0.27,0.1c-0.11,0-0.2-0.03-0.27-0.1c-0.07-0.07-0.11-0.16-0.11-0.27v-4.61c0-0.11,0.04-0.2,0.11-0.27
			c0.07-0.07,0.16-0.11,0.27-0.11c0.11,0,0.2,0.04,0.27,0.11c0.07,0.07,0.1,0.16,0.1,0.27v0.22c0.18-0.21,0.4-0.37,0.65-0.48
			c0.25-0.11,0.52-0.17,0.82-0.17c0.36,0,0.68,0.08,0.97,0.24c0.29,0.16,0.52,0.39,0.69,0.69c0.19-0.29,0.44-0.52,0.74-0.69
			c0.3-0.16,0.65-0.24,1.02-0.24C245.6,70.48,245.94,70.57,246.24,70.75z"/>
	</g>
</g>
</svg>
